<?xml version="1.0"?>
<svg xmlns="http://www.w3.org/2000/svg" xmlns:xlink="http://www.w3.org/1999/xlink" version="1.1" id="Layer_1" x="0px" y="0px" viewBox="0 0 495.335 495.335" style="enable-background:new 0 0 495.335 495.335;" xml:space="preserve" width="512px" height="512px"><g><g>
	<g>
		<path d="M220.547,206.535c-5.47,0-9.93,4.46-9.93,9.93v7.33h19.86v-7.33C230.478,210.995,226.027,206.535,220.547,206.535z     M220.547,206.535c-5.47,0-9.93,4.46-9.93,9.93v7.33h19.86v-7.33C230.478,210.995,226.027,206.535,220.547,206.535z     M220.547,206.535c-5.47,0-9.93,4.46-9.93,9.93v7.33h19.86v-7.33C230.478,210.995,226.027,206.535,220.547,206.535z     M220.547,206.535c-5.47,0-9.93,4.46-9.93,9.93v7.33h19.86v-7.33C230.478,210.995,226.027,206.535,220.547,206.535z     M220.547,206.535c-5.47,0-9.93,4.46-9.93,9.93v7.33h19.86v-7.33C230.478,210.995,226.027,206.535,220.547,206.535z     M220.547,206.535c-5.47,0-9.93,4.46-9.93,9.93v7.33h19.86v-7.33C230.478,210.995,226.027,206.535,220.547,206.535z     M417.847,28.995h-51.2v34.67c0,8.28-6.72,15-15,15h-204.55c-8.29,0-15-6.73-15-15v-34.67h-54.61c-8.28,0-15,6.72-15,15v436.34    c0,8.28,6.72,15,15,15h340.36c8.28,0,15-6.72,15-15V43.995C432.847,35.715,426.127,28.995,417.847,28.995z M289.777,418.391    c5.85,5.86,5.85,15.35,0,21.21c-5.854,5.854-15.341,5.879-21.22,0l-20.89-20.89l-20.89,20.89c-5.854,5.854-15.341,5.879-21.22,0    c-5.85-5.86-5.85-15.35,0-21.21l20.9-20.89l-20.9-20.9c-5.85-5.86-5.85-15.35,0-21.21c5.86-5.86,15.36-5.86,21.22,0l20.89,20.89    l20.89-20.89c5.86-5.86,15.36-5.86,21.22,0c5.85,5.86,5.85,15.35,0,21.21l-20.89,20.9L289.777,418.391z M378.208,321.005h-261.08    c-8.28,0-15-6.72-15-15c0-8.29,6.72-15,15-15h261.08c8.28,0,15,6.71,15,15C393.208,314.285,386.488,321.005,378.208,321.005z     M155.958,217.655c6.9,0,12.5,5.59,12.5,12.5c0,6.9-5.6,12.5-12.5,12.5h-24.08v16.88c0,6.9-5.59,12.5-12.5,12.5    c-6.9,0-12.5-5.6-12.5-12.5v-65.5c0-6.872,5.568-12.5,12.5-12.5h43.07c6.91,0,12.5,5.6,12.5,12.5c0,6.9-5.59,12.5-12.5,12.5    h-30.57v11.12H155.958z M210.617,248.795v10.74c0,6.9-5.59,12.5-12.5,12.5c-6.9,0-12.5-5.6-12.5-12.5v-43.07    c0-19.26,15.67-34.93,34.93-34.93c19.27,0,34.94,15.67,34.94,34.93v43.07c0,6.9-5.6,12.5-12.51,12.5c-6.9,0-12.5-5.6-12.5-12.5    v-10.74H210.617z M276.968,259.535v-65.5c0-6.9,5.59-12.5,12.5-12.5c6.9,0,12.5,5.6,12.5,12.5v65.5c0,6.9-5.6,12.5-12.5,12.5    C282.557,272.035,276.968,266.435,276.968,259.535z M375.958,247.035c6.9,0,12.5,5.59,12.5,12.5c0,6.9-5.6,12.5-12.5,12.5h-40.58    c-6.9,0-12.5-5.6-12.5-12.5v-65.5c0-6.9,5.6-12.5,12.5-12.5c6.9,0,12.5,5.6,12.5,12.5v53H375.958z M378.208,167.085h-261.08    c-8.28,0-15-6.72-15-15c0-8.29,6.72-15,15-15h261.08c8.28,0,15,6.71,15,15C393.208,160.365,386.488,167.085,378.208,167.085z     M230.478,216.465c0-5.47-4.45-9.93-9.93-9.93c-5.47,0-9.93,4.46-9.93,9.93v7.33h19.86V216.465z M220.547,206.535    c-5.47,0-9.93,4.46-9.93,9.93v7.33h19.86v-7.33C230.478,210.995,226.027,206.535,220.547,206.535z M220.547,206.535    c-5.47,0-9.93,4.46-9.93,9.93v7.33h19.86v-7.33C230.478,210.995,226.027,206.535,220.547,206.535z M220.547,206.535    c-5.47,0-9.93,4.46-9.93,9.93v7.33h19.86v-7.33C230.478,210.995,226.027,206.535,220.547,206.535z M220.547,206.535    c-5.47,0-9.93,4.46-9.93,9.93v7.33h19.86v-7.33C230.478,210.995,226.027,206.535,220.547,206.535z" data-original="#000000" class="active-path" data-old_color="#000000" fill="#029ADB"/>
	</g>
	<g>
		<path d="M331.647,0h-164.55c-2.761,0-5,2.239-5,5v38.66c0,2.761,2.239,5,5,5h164.55c2.761,0,5-2.239,5-5V5    C336.647,2.239,334.409,0,331.647,0z" data-original="#000000" class="active-path" data-old_color="#000000" fill="#029ADB"/>
	</g>
</g></g> </svg>
